{"failedCount":2,"prefixedPath":"src\/test\/java\/prueba\/get\/tecnica-get.feature","packageQualifiedName":"src.test.java.prueba.get.tecnica-get","loopIndex":-1,"relativePath":"src\/test\/java\/prueba\/get\/tecnica-get.feature","scenarioResults":[{"sectionIndex":0,"stepResults":[{"result":{"nanos":1489300,"millis":1.4893,"status":"passed"},"step":{"background":true,"line":4,"prefix":"*","index":0,"text":"url 'https:\/\/reqres.in\/api\/'"}},{"result":{"nanos":3099000,"millis":3.099,"status":"passed"},"step":{"background":true,"line":5,"prefix":"*","index":1,"text":"path userPath = '\/users'"}},{"result":{"nanos":67509300,"millis":67.5093,"status":"passed"},"step":{"background":true,"line":6,"prefix":"*","index":2,"text":"params {username: \"#(user.name)\", formatted: true, page: #(pageId)}"}},{"result":{"nanos":9299515800,"millis":9299.5158,"status":"passed"},"step":{"line":11,"prefix":"When","index":0,"text":"method Get"},"stepLog":"18:36:54.430 request:\n1 > GET https:\/\/reqres.in\/api\/users?formatted=true&page=2&username=karate\n1 > Host: reqres.in\n1 > Connection: Keep-Alive\n1 > User-Agent: Apache-HttpClient\/4.5.13 (Java\/11.0.22)\n1 > Accept-Encoding: gzip,deflate\n\n\n18:37:02.720 response time in milliseconds: 8288\n1 < 200\n1 < Date: Tue, 03 Sep 2024 23:35:51 GMT\n1 < Content-Type: application\/json; charset=utf-8\n1 < Transfer-Encoding: chunked\n1 < Connection: keep-alive\n1 < Report-To: {\"group\":\"heroku-nel\",\"max_age\":3600,\"endpoints\":[{\"url\":\"https:\/\/nel.heroku.com\/reports?ts=1725406550&sid=c4c9725f-1ab0-44d8-820f-430df2718e11&s=0rp1WIpRQXArIP4QATJzoB67T7HVtBDWe%2BkqL8rNZpE%3D\"}]}\n1 < Reporting-Endpoints: heroku-nel=https:\/\/nel.heroku.com\/reports?ts=1725406550&sid=c4c9725f-1ab0-44d8-820f-430df2718e11&s=0rp1WIpRQXArIP4QATJzoB67T7HVtBDWe%2BkqL8rNZpE%3D\n1 < Nel: {\"report_to\":\"heroku-nel\",\"max_age\":3600,\"success_fraction\":0.005,\"failure_fraction\":0.05,\"response_headers\":[\"Via\"]}\n1 < X-Powered-By: Express\n1 < Access-Control-Allow-Origin: *\n1 < Etag: W\/\"406-ut0vzoCuidvyMf8arZpMpJ6ZRDw\"\n1 < Via: 1.1 vegur\n1 < Cache-Control: max-age=14400\n1 < CF-Cache-Status: MISS\n1 < Vary: Accept-Encoding\n1 < Server: cloudflare\n1 < CF-RAY: 8bd98efc7dc6e60a-ARI\n{\"page\":2,\"per_page\":6,\"total\":12,\"total_pages\":2,\"data\":[{\"id\":7,\"email\":\"michael.lawson@reqres.in\",\"first_name\":\"Michael\",\"last_name\":\"Lawson\",\"avatar\":\"https:\/\/reqres.in\/img\/faces\/7-image.jpg\"},{\"id\":8,\"email\":\"lindsay.ferguson@reqres.in\",\"first_name\":\"Lindsay\",\"last_name\":\"Ferguson\",\"avatar\":\"https:\/\/reqres.in\/img\/faces\/8-image.jpg\"},{\"id\":9,\"email\":\"tobias.funke@reqres.in\",\"first_name\":\"Tobias\",\"last_name\":\"Funke\",\"avatar\":\"https:\/\/reqres.in\/img\/faces\/9-image.jpg\"},{\"id\":10,\"email\":\"byron.fields@reqres.in\",\"first_name\":\"Byron\",\"last_name\":\"Fields\",\"avatar\":\"https:\/\/reqres.in\/img\/faces\/10-image.jpg\"},{\"id\":11,\"email\":\"george.edwards@reqres.in\",\"first_name\":\"George\",\"last_name\":\"Edwards\",\"avatar\":\"https:\/\/reqres.in\/img\/faces\/11-image.jpg\"},{\"id\":12,\"email\":\"rachel.howell@reqres.in\",\"first_name\":\"Rachel\",\"last_name\":\"Howell\",\"avatar\":\"https:\/\/reqres.in\/img\/faces\/12-image.jpg\"}],\"support\":{\"url\":\"https:\/\/reqres.in\/#support-heading\",\"text\":\"To keep ReqRes free, contributions towards server costs are appreciated!\"}}\n\n"},{"result":{"nanos":27400,"millis":0.0274,"status":"passed"},"step":{"line":12,"prefix":"Then","index":1,"text":"status 200"}},{"result":{"nanos":16477200,"errorMessage":"js failed:\n>>>>\n01: responseTest1\n<<<<\norg.graalvm.polyglot.PolyglotException: ReferenceError: \"responseTest1\" is not defined\n- <js>.:program(Unnamed:1)\n\nsrc\/test\/java\/prueba\/get\/tecnica-get.feature:13","millis":16.4772,"status":"failed"},"step":{"line":13,"prefix":"*","index":2,"text":"match $ == responseTest1"},"stepLog":"18:37:02.741 src\/test\/java\/prueba\/get\/tecnica-get.feature:13\n* match $ == responseTest1\njs failed:\n>>>>\n01: responseTest1\n<<<<\norg.graalvm.polyglot.PolyglotException: ReferenceError: \"responseTest1\" is not defined\n- <js>.:program(Unnamed:1)\n\nsrc\/test\/java\/prueba\/get\/tecnica-get.feature:13\n"},{"result":{"nanos":0,"millis":0.0,"status":"skipped"},"step":{"comments":["##Capturar dato del response cuando se encuentra dentro de un [{}]"],"line":15,"prefix":"*","index":3,"text":"def idUser = $.data..id"}},{"result":{"nanos":0,"millis":0.0,"status":"skipped"},"step":{"line":16,"prefix":"*","index":4,"text":"print idUser"}}],"line":20,"description":"","durationMillis":9388.118,"failed":true,"error":"js failed:\n>>>>\n01: responseTest1\n<<<<\norg.graalvm.polyglot.PolyglotException: ReferenceError: \"responseTest1\" is not defined\n- <js>.:program(Unnamed:1)\n\nsrc\/test\/java\/prueba\/get\/tecnica-get.feature:13","executorName":"main","name":"List users by page Test 1","startTime":1725406613105,"refId":"[1.1:20]","endTime":1725406622741,"exampleData":{"idTest":"Test 1","pageId":"2"},"exampleIndex":0},{"sectionIndex":0,"stepResults":[{"result":{"nanos":399700,"millis":0.3997,"status":"passed"},"step":{"background":true,"line":4,"prefix":"*","index":0,"text":"url 'https:\/\/reqres.in\/api\/'"}},{"result":{"nanos":443800,"millis":0.4438,"status":"passed"},"step":{"background":true,"line":5,"prefix":"*","index":1,"text":"path userPath = '\/users'"}},{"result":{"nanos":1074300,"millis":1.0743,"status":"passed"},"step":{"background":true,"line":6,"prefix":"*","index":2,"text":"params {username: \"#(user.name)\", formatted: true, page: #(pageId)}"}},{"result":{"nanos":675931300,"millis":675.9313,"status":"passed"},"step":{"line":11,"prefix":"When","index":0,"text":"method Get"},"stepLog":"18:37:02.750 request:\n1 > GET https:\/\/reqres.in\/api\/users?formatted=true&page=1&username=karate\n1 > Host: reqres.in\n1 > Connection: Keep-Alive\n1 > User-Agent: Apache-HttpClient\/4.5.13 (Java\/11.0.22)\n1 > Accept-Encoding: gzip,deflate\n\n\n18:37:03.423 response time in milliseconds: 673\n1 < 200\n1 < Date: Tue, 03 Sep 2024 23:35:51 GMT\n1 < Content-Type: application\/json; charset=utf-8\n1 < Transfer-Encoding: chunked\n1 < Connection: keep-alive\n1 < Report-To: {\"group\":\"heroku-nel\",\"max_age\":3600,\"endpoints\":[{\"url\":\"https:\/\/nel.heroku.com\/reports?ts=1725406551&sid=c4c9725f-1ab0-44d8-820f-430df2718e11&s=zfJUb5arWcgnhypf7CKRaT24qvm2lgaDEnl5ZIa4gK8%3D\"}]}\n1 < Reporting-Endpoints: heroku-nel=https:\/\/nel.heroku.com\/reports?ts=1725406551&sid=c4c9725f-1ab0-44d8-820f-430df2718e11&s=zfJUb5arWcgnhypf7CKRaT24qvm2lgaDEnl5ZIa4gK8%3D\n1 < Nel: {\"report_to\":\"heroku-nel\",\"max_age\":3600,\"success_fraction\":0.005,\"failure_fraction\":0.05,\"response_headers\":[\"Via\"]}\n1 < X-Powered-By: Express\n1 < Access-Control-Allow-Origin: *\n1 < Etag: W\/\"3e4-2RLXvr5wTg9YQ6aH95CkYoFNuO8\"\n1 < Via: 1.1 vegur\n1 < Cache-Control: max-age=14400\n1 < CF-Cache-Status: MISS\n1 < Vary: Accept-Encoding\n1 < Server: cloudflare\n1 < CF-RAY: 8bd98f01da63c840-ARI\n{\"page\":1,\"per_page\":6,\"total\":12,\"total_pages\":2,\"data\":[{\"id\":1,\"email\":\"george.bluth@reqres.in\",\"first_name\":\"George\",\"last_name\":\"Bluth\",\"avatar\":\"https:\/\/reqres.in\/img\/faces\/1-image.jpg\"},{\"id\":2,\"email\":\"janet.weaver@reqres.in\",\"first_name\":\"Janet\",\"last_name\":\"Weaver\",\"avatar\":\"https:\/\/reqres.in\/img\/faces\/2-image.jpg\"},{\"id\":3,\"email\":\"emma.wong@reqres.in\",\"first_name\":\"Emma\",\"last_name\":\"Wong\",\"avatar\":\"https:\/\/reqres.in\/img\/faces\/3-image.jpg\"},{\"id\":4,\"email\":\"eve.holt@reqres.in\",\"first_name\":\"Eve\",\"last_name\":\"Holt\",\"avatar\":\"https:\/\/reqres.in\/img\/faces\/4-image.jpg\"},{\"id\":5,\"email\":\"charles.morris@reqres.in\",\"first_name\":\"Charles\",\"last_name\":\"Morris\",\"avatar\":\"https:\/\/reqres.in\/img\/faces\/5-image.jpg\"},{\"id\":6,\"email\":\"tracey.ramos@reqres.in\",\"first_name\":\"Tracey\",\"last_name\":\"Ramos\",\"avatar\":\"https:\/\/reqres.in\/img\/faces\/6-image.jpg\"}],\"support\":{\"url\":\"https:\/\/reqres.in\/#support-heading\",\"text\":\"To keep ReqRes free, contributions towards server costs are appreciated!\"}}\n\n"},{"result":{"nanos":9800,"millis":0.0098,"status":"passed"},"step":{"line":12,"prefix":"Then","index":1,"text":"status 200"}},{"result":{"nanos":1170000,"errorMessage":"js failed:\n>>>>\n01: responseTest1\n<<<<\norg.graalvm.polyglot.PolyglotException: ReferenceError: \"responseTest1\" is not defined\n- <js>.:program(Unnamed:1)\n\nsrc\/test\/java\/prueba\/get\/tecnica-get.feature:13","millis":1.17,"status":"failed"},"step":{"line":13,"prefix":"*","index":2,"text":"match $ == responseTest1"},"stepLog":"18:37:03.426 src\/test\/java\/prueba\/get\/tecnica-get.feature:13\n* match $ == responseTest1\njs failed:\n>>>>\n01: responseTest1\n<<<<\norg.graalvm.polyglot.PolyglotException: ReferenceError: \"responseTest1\" is not defined\n- <js>.:program(Unnamed:1)\n\nsrc\/test\/java\/prueba\/get\/tecnica-get.feature:13\n"},{"result":{"nanos":0,"millis":0.0,"status":"skipped"},"step":{"comments":["##Capturar dato del response cuando se encuentra dentro de un [{}]"],"line":15,"prefix":"*","index":3,"text":"def idUser = $.data..id"}},{"result":{"nanos":0,"millis":0.0,"status":"skipped"},"step":{"line":16,"prefix":"*","index":4,"text":"print idUser"}}],"line":21,"description":"","durationMillis":679.0289,"failed":true,"error":"js failed:\n>>>>\n01: responseTest1\n<<<<\norg.graalvm.polyglot.PolyglotException: ReferenceError: \"responseTest1\" is not defined\n- <js>.:program(Unnamed:1)\n\nsrc\/test\/java\/prueba\/get\/tecnica-get.feature:13","executorName":"main","name":"List users by page Test 2","startTime":1725406622745,"refId":"[1.2:21]","endTime":1725406623426,"exampleData":{"idTest":"Test 2","pageId":"1"},"exampleIndex":1}],"callDepth":0,"name":"List users with the metho","description":"","resultDate":"2024-09-03 06:37:03 p. m.","durationMillis":10067.1469,"passedCount":0}